…
data("brfss_smart2010")
brfss_smart = 
  brfss_smart2010 |>
  janitor::clean_names() |>
  rename(state = locationabbr, state_location = locationdesc) |>
  filter(topic == "Overall Health",
         response %in% c("Poor", "Fair", "Good", "Very good", "Excellent")) |>
  mutate(
    response = factor(response, 
         levels = c("Poor", "Fair", "Good", "Very good", "Excellent"),
         ordered = TRUE))
brfss_smart
```

    ## # A tibble: 10,625 × 23
    ##     year state state_location        class   topic question response sample_size
    ##    <int> <chr> <chr>                 <chr>   <chr> <chr>    <ord>          <int>
    ##  1  2010 AL    AL - Jefferson County Health… Over… How is … Excelle…          94
    ##  2  2010 AL    AL - Jefferson County Health… Over… How is … Very go…         148
    ##  3  2010 AL    AL - Jefferson County Health… Over… How is … Good             208
    ##  4  2010 AL    AL - Jefferson County Health… Over… How is … Fair             107
    ##  5  2010 AL    AL - Jefferson County Health… Over… How is … Poor              45
    ##  6  2010 AL    AL - Mobile County    Health… Over… How is … Excelle…          91
    ##  7  2010 AL    AL - Mobile County    Health… Over… How is … Very go…         177
    ##  8  2010 AL    AL - Mobile County    Health… Over… How is … Good             224
    ##  9  2010 AL    AL - Mobile County    Health… Over… How is … Fair             120
    ## 10  2010 AL    AL - Mobile County    Health… Over… How is … Poor              66
    ## # ℹ 10,615 more rows
    ## # ℹ 15 more variables: data_value <dbl>, confidence_limit_low <dbl>,
    ## #   confidence_limit_high <dbl>, display_order <int>, data_value_unit <chr>,
    ## #   data_value_type <chr>, data_value_footnote_symbol <chr>,
    ## #   data_value_footnote <chr>, data_source <chr>, class_id <chr>,
    ## #   topic_id <chr>, location_id <chr>, question_id <chr>, respid <chr>,
    ## #   geo_location <chr>
…
##### Make a two-panel plot showing, for the years 2006, and 2010, distribution of data_value for responses (“Poor” to “Excellent”) among locations in NY State.

``` r
brfss_smart_NY = 
  brfss_smart |>
  filter((year == 2006|year == 2010), state=="NY") 
brfss_smart_NY
```

    ## # A tibble: 75 × 23
    ##     year state state_location    class       topic question response sample_size
    ##    <int> <chr> <chr>             <chr>       <chr> <chr>    <ord>          <int>
    ##  1  2010 NY    NY - Bronx County Health Sta… Over… How is … Excelle…          61
    ##  2  2010 NY    NY - Bronx County Health Sta… Over… How is … Very go…         105
    ##  3  2010 NY    NY - Bronx County Health Sta… Over… How is … Good             151
    ##  4  2010 NY    NY - Bronx County Health Sta… Over… How is … Fair              86
    ##  5  2010 NY    NY - Bronx County Health Sta… Over… How is … Poor              31
    ##  6  2010 NY    NY - Erie County  Health Sta… Over… How is … Excelle…          69
    ##  7  2010 NY    NY - Erie County  Health Sta… Over… How is … Very go…         169
    ##  8  2010 NY    NY - Erie County  Health Sta… Over… How is … Good             154
    ##  9  2010 NY    NY - Erie County  Health Sta… Over… How is … Fair              69
    ## 10  2010 NY    NY - Erie County  Health Sta… Over… How is … Poor              16
    ## # ℹ 65 more rows
    ## # ℹ 15 more variables: data_value <dbl>, confidence_limit_low <dbl>,
    ## #   confidence_limit_high <dbl>, display_order <int>, data_value_unit <chr>,
    ## #   data_value_type <chr>, data_value_footnote_symbol <chr>,
    ## #   data_value_footnote <chr>, data_source <chr>, class_id <chr>,
    ## #   topic_id <chr>, location_id <chr>, question_id <chr>, respid <chr>,
    ## #   geo_location <chr>
…
``` r
brfss_smart_NY
```

    ## # A tibble: 75 × 23
    ##     year state state_location    class       topic question response sample_size
    ##    <int> <chr> <chr>             <chr>       <chr> <chr>    <ord>          <int>
    ##  1  2010 NY    NY - Bronx County Health Sta… Over… How is … Excelle…          61
    ##  2  2010 NY    NY - Bronx County Health Sta… Over… How is … Very go…         105
    ##  3  2010 NY    NY - Bronx County Health Sta… Over… How is … Good             151
    ##  4  2010 NY    NY - Bronx County Health Sta… Over… How is … Fair              86
    ##  5  2010 NY    NY - Bronx County Health Sta… Over… How is … Poor              31
    ##  6  2010 NY    NY - Erie County  Health Sta… Over… How is … Excelle…          69
    ##  7  2010 NY    NY - Erie County  Health Sta… Over… How is … Very go…         169
    ##  8  2010 NY    NY - Erie County  Health Sta… Over… How is … Good             154
    ##  9  2010 NY    NY - Erie County  Health Sta… Over… How is … Fair              69
    ## 10  2010 NY    NY - Erie County  Health Sta… Over… How is … Poor              16
    ## # ℹ 65 more rows
    ## # ℹ 15 more variables: data_value <dbl>, confidence_limit_low <dbl>,
    ## #   confidence_limit_high <dbl>, display_order <int>, data_value_unit <chr>,
    ## #   data_value_type <chr>, data_value_footnote_symbol <chr>,
    ## #   data_value_footnote <chr>, data_source <chr>, class_id <chr>,
    ## #   topic_id <chr>, location_id <chr>, question_id <chr>, respid <chr>,
    ## #   geo_location <chr>
…
